<svg width="130" height="126" viewBox="0 0 130 126" fill="none" xmlns="http://www.w3.org/2000/svg">
<path d="M27.9983 65.9673C28.3008 67.1102 28.8269 68.1818 29.5463 69.1201C30.2657 70.0583 31.164 70.8445 32.1893 71.4333L52.9743 83.4333C54.3375 84.2214 55.8847 84.6353 57.4593 84.6333C58.8382 84.6271 60.1974 84.3059 61.4333 83.6943L67.1013 86.9673L80.9573 94.9673C81.2987 95.1643 81.6756 95.2921 82.0664 95.3434C82.4573 95.3947 82.8544 95.3686 83.2351 95.2664C83.6158 95.1643 83.9727 94.9882 84.2853 94.7481C84.598 94.508 84.8603 94.2087 85.0573 93.8673C85.2542 93.5259 85.3821 93.149 85.4334 92.7581C85.4847 92.3673 85.4585 91.9702 85.3564 91.5895C85.2543 91.2088 85.0781 90.8519 84.8381 90.5392C84.598 90.2266 84.2987 89.9643 83.9573 89.7673L70.1013 81.7673L65.7713 79.2673L66.2713 78.4013C66.3369 78.2875 66.3794 78.1619 66.3965 78.0317C66.4136 77.9014 66.4048 77.7691 66.3707 77.6423C66.3367 77.5154 66.2779 77.3965 66.1979 77.2924C66.1178 77.1882 66.0181 77.1009 65.9043 77.0353L61.4523 74.4673C62.6553 73.0563 64.1893 70.9143 64.1893 69.5673C64.1887 68.755 63.9409 67.9622 63.4788 67.2942C63.0166 66.6263 62.3621 66.1148 61.6022 65.8279C60.8423 65.541 60.0131 65.4922 59.2248 65.6881C58.4365 65.8839 57.7265 66.3151 57.1893 66.9243C56.7365 66.4081 56.158 66.0175 55.51 65.7904C54.8619 65.5633 54.1662 65.5074 53.4902 65.6281C52.8142 65.7488 52.1808 66.042 51.6514 66.4793C51.122 66.9166 50.7145 67.4833 50.4683 68.1243L31.2633 57.0413C31.0331 56.9099 30.7606 56.874 30.5043 56.9413C30.2482 57.01 30.0298 57.1776 29.8973 57.4073L28.8973 59.1393C28.3035 60.1615 27.9183 61.2912 27.764 62.4633C27.6097 63.6353 27.6893 64.8263 27.9983 65.9673V65.9673ZM69.4673 84.8673L69.9673 84.0013L82.9583 91.5013C83.1861 91.6348 83.3518 91.8531 83.4193 92.1084C83.4868 92.3637 83.4506 92.6353 83.3185 92.864C83.1865 93.0927 82.9694 93.2599 82.7145 93.329C82.4597 93.3982 82.1878 93.3638 81.9583 93.2333L68.9683 85.7333L69.4673 84.8673ZM64.7123 80.9673L68.2343 83.0013L67.7343 83.8673L67.2343 84.7333L63.3083 82.4673C63.8324 82.0229 64.3035 81.5196 64.7123 80.9673V80.9673ZM54.1893 67.5673C54.7197 67.5673 55.2284 67.778 55.6035 68.1531C55.9786 68.5282 56.1893 69.0369 56.1893 69.5673V69.8373C56.1893 70.1025 56.2946 70.3569 56.4822 70.5444C56.6697 70.7319 56.9241 70.8373 57.1893 70.8373C57.4545 70.8373 57.7088 70.7319 57.8964 70.5444C58.0839 70.3569 58.1893 70.1025 58.1893 69.8373V69.5673C58.1893 69.0369 58.4 68.5282 58.7751 68.1531C59.1501 67.778 59.6588 67.5673 60.1893 67.5673C60.7197 67.5673 61.2284 67.778 61.6035 68.1531C61.9786 68.5282 62.1893 69.0369 62.1893 69.5673C61.6398 71.0247 60.7877 72.3491 59.6893 73.4533L52.2363 69.1533C52.3311 68.7053 52.5767 68.3034 52.9322 68.0147C53.2876 67.7261 53.7314 67.5681 54.1893 67.5673ZM30.6293 60.1393L31.1293 59.2733L64.0393 78.2733L63.5393 79.1393C62.6093 80.7452 61.0804 81.9167 59.2879 82.397C57.4954 82.8773 55.5856 82.6271 53.9773 81.7013L33.1893 69.7013C31.5835 68.7712 30.4122 67.2421 29.9323 65.4496C29.4524 63.657 29.703 61.7473 30.6293 60.1393V60.1393Z" fill="#FFFDFD"/>
<path d="M69.1892 41.5674C69.7415 41.5674 70.1892 41.1197 70.1892 40.5674C70.1892 40.0151 69.7415 39.5674 69.1892 39.5674C68.637 39.5674 68.1892 40.0151 68.1892 40.5674C68.1892 41.1197 68.637 41.5674 69.1892 41.5674Z" fill="#FFFDFD"/>
<path d="M85.1892 39.5674C85.7415 39.5674 86.1892 39.1197 86.1892 38.5674C86.1892 38.0151 85.7415 37.5674 85.1892 37.5674C84.637 37.5674 84.1892 38.0151 84.1892 38.5674C84.1892 39.1197 84.637 39.5674 85.1892 39.5674Z" fill="#FFFDFD"/>
<path d="M37.1892 56.5674C37.7415 56.5674 38.1892 56.1197 38.1892 55.5674C38.1892 55.0151 37.7415 54.5674 37.1892 54.5674C36.637 54.5674 36.1892 55.0151 36.1892 55.5674C36.1892 56.1197 36.637 56.5674 37.1892 56.5674Z" fill="#FFFDFD"/>
<path d="M45.1892 40.5674C45.7415 40.5674 46.1892 40.1197 46.1892 39.5674C46.1892 39.0151 45.7415 38.5674 45.1892 38.5674C44.637 38.5674 44.1892 39.0151 44.1892 39.5674C44.1892 40.1197 44.637 40.5674 45.1892 40.5674Z" fill="#FFFDFD"/>
<path d="M42.1892 53.5673C42.1892 55.7393 46.9112 61.5673 49.1892 61.5673C51.4672 61.5673 56.1892 55.7393 56.1892 53.5673C56.1887 52.7551 55.9409 51.9622 55.4787 51.2943C55.0166 50.6263 54.3621 50.1148 53.6022 49.8279C52.8423 49.541 52.013 49.4922 51.2248 49.6881C50.4365 49.8839 49.7265 50.3151 49.1892 50.9243C48.652 50.3151 47.942 49.8839 47.1537 49.6881C46.3654 49.4922 45.5362 49.541 44.7763 49.8279C44.0164 50.1148 43.3619 50.6263 42.8998 51.2943C42.4376 51.9622 42.1898 52.7551 42.1892 53.5673V53.5673ZM46.1892 51.5673C46.7197 51.5673 47.2284 51.778 47.6035 52.1531C47.9785 52.5282 48.1892 53.0369 48.1892 53.5673V53.8373C48.1892 54.1025 48.2946 54.3569 48.4821 54.5444C48.6697 54.732 48.924 54.8373 49.1892 54.8373C49.4545 54.8373 49.7088 54.732 49.8963 54.5444C50.0839 54.3569 50.1892 54.1025 50.1892 53.8373V53.5673C50.1892 53.0369 50.4 52.5282 50.775 52.1531C51.1501 51.778 51.6588 51.5673 52.1892 51.5673C52.7197 51.5673 53.2284 51.778 53.6035 52.1531C53.9785 52.5282 54.1892 53.0369 54.1892 53.5673C54.1662 54.8213 50.3222 59.4203 49.2052 59.5673C48.0562 59.4193 44.2122 54.8203 44.1892 53.5673C44.1892 53.0369 44.4 52.5282 44.775 52.1531C45.1501 51.778 45.6588 51.5673 46.1892 51.5673V51.5673Z" fill="#FFFDFD"/>
<path d="M66.1892 39.5673C66.1887 38.7551 65.9409 37.9622 65.4787 37.2943C65.0166 36.6263 64.3621 36.1148 63.6022 35.8279C62.8423 35.541 62.013 35.4922 61.2248 35.6881C60.4365 35.8839 59.7265 36.3151 59.1892 36.9243C58.652 36.3151 57.942 35.8839 57.1537 35.6881C56.3654 35.4922 55.5362 35.541 54.7763 35.8279C54.0164 36.1148 53.3619 36.6263 52.8998 37.2943C52.4376 37.9622 52.1898 38.7551 52.1892 39.5673C52.1892 41.7393 56.9112 47.5673 59.1892 47.5673C61.4672 47.5673 66.1892 41.7393 66.1892 39.5673ZM54.1892 39.5673C54.1892 39.0369 54.4 38.5282 54.775 38.1531C55.1501 37.778 55.6588 37.5673 56.1892 37.5673C56.7197 37.5673 57.2284 37.778 57.6035 38.1531C57.9785 38.5282 58.1892 39.0369 58.1892 39.5673V39.8373C58.1892 40.1025 58.2946 40.3569 58.4821 40.5444C58.6697 40.732 58.924 40.8373 59.1892 40.8373C59.4545 40.8373 59.7088 40.732 59.8963 40.5444C60.0839 40.3569 60.1892 40.1025 60.1892 39.8373V39.5673C60.1892 39.0369 60.4 38.5282 60.775 38.1531C61.1501 37.778 61.6588 37.5673 62.1892 37.5673C62.7197 37.5673 63.2284 37.778 63.6035 38.1531C63.9785 38.5282 64.1892 39.0369 64.1892 39.5673C64.1662 40.8213 60.3222 45.4203 59.2052 45.5673C58.0562 45.4203 54.2122 40.8213 54.1892 39.5673Z" fill="#FFFDFD"/>
<path d="M38.1892 43.5674C38.1892 43.3022 38.0839 43.0478 37.8963 42.8603C37.7088 42.6727 37.4545 42.5674 37.1892 42.5674H33.1892C32.924 42.5674 32.6697 42.6727 32.4821 42.8603C32.2946 43.0478 32.1892 43.3022 32.1892 43.5674V47.5674C32.1892 47.8326 32.2946 48.087 32.4821 48.2745C32.6697 48.462 32.924 48.5674 33.1892 48.5674H37.1892C37.4545 48.5674 37.7088 48.462 37.8963 48.2745C38.0839 48.087 38.1892 47.8326 38.1892 47.5674V43.5674ZM36.1892 46.5674H34.1892V44.5674H36.1892V46.5674Z" fill="#FFFDFD"/>
<path d="M68.1892 54.5674C68.4545 54.5674 68.7088 54.462 68.8963 54.2745C69.0839 54.087 69.1892 53.8326 69.1892 53.5674V49.5674C69.1892 49.3022 69.0839 49.0478 68.8963 48.8603C68.7088 48.6727 68.4545 48.5674 68.1892 48.5674H64.1892C63.924 48.5674 63.6697 48.6727 63.4821 48.8603C63.2946 49.0478 63.1892 49.3022 63.1892 49.5674V53.5674C63.1892 53.8326 63.2946 54.087 63.4821 54.2745C63.6697 54.462 63.924 54.5674 64.1892 54.5674H68.1892ZM65.1892 50.5674H67.1892V52.5674H65.1892V50.5674Z" fill="#FFFDFD"/>
<path d="M74.1892 37.5674C73.924 37.5674 73.6697 37.6727 73.4821 37.8603C73.2946 38.0478 73.1892 38.3022 73.1892 38.5674V42.5674C73.1892 42.8326 73.2946 43.087 73.4821 43.2745C73.6697 43.462 73.924 43.5674 74.1892 43.5674H78.1892C78.4545 43.5674 78.7088 43.462 78.8963 43.2745C79.0839 43.087 79.1892 42.8326 79.1892 42.5674V38.5674C79.1892 38.3022 79.0839 38.0478 78.8963 37.8603C78.7088 37.6727 78.4545 37.5674 78.1892 37.5674H74.1892ZM77.1892 41.5674H75.1892V39.5674H77.1892V41.5674Z" fill="#FFFDFD"/>
<path d="M63.1892 61.5674C63.7415 61.5674 64.1892 61.1197 64.1892 60.5674C64.1892 60.0151 63.7415 59.5674 63.1892 59.5674C62.637 59.5674 62.1892 60.0151 62.1892 60.5674C62.1892 61.1197 62.637 61.5674 63.1892 61.5674Z" fill="#FFFDFD"/>
<path d="M28.6508 38.3006C29.42 37.398 30.2489 36.5287 31.1046 35.7102C31.846 34.9951 31.8674 33.7944 31.147 33.0278C30.5564 32.3875 29.6372 32.2446 28.9106 32.6275C28.762 32.7058 28.6223 32.801 28.5004 32.9301C27.5635 33.8347 26.6533 34.79 25.794 35.7619C25.1137 36.5528 25.2182 37.7521 25.9868 38.45C26.7884 39.1306 27.9781 39.066 28.6508 38.3006Z" fill="#FFFDFD"/>
<path d="M22.8378 47.2889C23.341 46.202 23.9041 45.1484 24.5015 44.12C25.019 43.2201 24.7226 42.0571 23.8245 41.5139C23.2343 41.1545 22.5378 41.1539 21.9763 41.4497C21.6791 41.6063 21.4264 41.8476 21.2514 42.1561C20.5982 43.2788 19.9717 44.4523 19.4216 45.6505C18.9893 46.5919 19.3861 47.7453 20.3235 48.2029C21.276 48.6093 22.389 48.2391 22.8378 47.2889Z" fill="#FFFDFD"/>
<path d="M36.6904 31.2963C37.6772 30.6465 38.7073 30.0389 39.7641 29.482C40.6724 29.0035 41.0141 27.8502 40.5236 26.9193C40.033 25.9883 38.8886 25.6182 37.9804 26.0967C36.8245 26.7058 35.6953 27.3656 34.6094 28.0676C33.7457 28.6308 33.5057 29.8169 34.0788 30.7044C34.6519 31.5918 35.8433 31.8508 36.6904 31.2963Z" fill="#FFFDFD"/>
<path d="M20.8139 81.4865C21.7681 81.1351 22.237 80.023 21.862 79.0312C21.4157 77.9039 21.0266 76.7249 20.6972 75.5792C20.3972 74.5695 19.3631 73.9682 18.3732 74.2519C18.2487 74.2959 18.1242 74.3399 18.0086 74.4008C17.249 74.801 16.8409 75.7081 17.0949 76.5907C17.4702 77.8635 17.904 79.1271 18.3708 80.3734C18.7622 81.3565 19.8432 81.8466 20.8139 81.4865Z" fill="#FFFDFD"/>
<path d="M17.6186 70.4974C18.6481 70.4091 19.3918 69.4982 19.2837 68.4522C19.1538 67.2447 19.0824 66.0281 19.0618 64.8279C19.0376 63.7809 18.2052 62.922 17.1642 62.9082C16.8451 62.9033 16.5542 62.9918 16.3065 63.1223C15.712 63.4355 15.3124 64.0786 15.3184 64.8107C15.334 66.1217 15.4095 67.466 15.5509 68.7755C15.6755 69.8128 16.5891 70.5857 17.6186 70.4974Z" fill="#FFFDFD"/>
<path d="M19.6171 57.593C19.8152 56.4074 20.0717 55.2125 20.3715 54.0598C20.6423 53.052 20.0385 51.9862 19.0314 51.7166C18.5571 51.5773 18.064 51.6424 17.6677 51.8513C17.2218 52.0862 16.8906 52.4986 16.7476 53.0281C16.4175 54.2834 16.1395 55.5977 15.9199 56.9028C15.7509 57.9434 16.436 58.9232 17.4493 59.1246C18.4867 59.2916 19.4646 58.6249 19.6171 57.593Z" fill="#FFFDFD"/>
<path d="M22.1646 84.17C21.2564 84.6486 20.9146 85.8018 21.4052 86.7328C32.7143 108.196 58.9601 116.684 79.8989 105.651C99.5662 95.2883 107.675 71.3576 99.2193 50.7053L112.978 55.1553C113.97 55.4761 115.01 54.9279 115.306 53.9284C115.603 52.929 115.041 51.8626 114.049 51.5418L96.2464 45.784C96.0175 45.71 95.7645 45.6703 95.5052 45.6987C95.279 45.7098 95.0375 45.7722 94.8229 45.8853C94.6082 45.9984 94.4203 46.1623 94.2667 46.3513C94.1132 46.5404 93.9939 46.7546 93.918 47.0108L88.6019 64.9502C88.3057 65.9496 88.8676 67.016 89.8595 67.3368C90.8513 67.6576 91.8916 67.1094 92.1878 66.1099L96.0762 52.9886C103.202 71.6382 95.7843 92.9558 78.1152 102.266C58.9928 112.342 35.0358 104.593 24.7078 84.9925C24.2173 84.0616 23.0728 83.6914 22.1646 84.17Z" fill="#FFFDFD"/>
</svg>
